Cluster Analysis of Customers with R
…
It is the same rows with missing values!!! Drop them!!!

# Drop the NA rows
df <- df[complete.cases(df),]

# Investigating the -1 values in the duration columns
anomalies <- df %>% select(c(Administrative_Duration, Administrative, Informational_Duration, Informational, ProductRelated_Duration, ProductRelated)) %>% filter(Administrative_Duration == -1 | Informational_Duration == -1 | ProductRelated_Duration == -1)
anomalies

## # A tibble: 33 x 6
##    Administrative_Duration Administrative Informational_Duration Informational
##                      <dbl>          <dbl>                  <dbl>         <dbl>
##  1                      -1              0                     -1             0
##  2                      -1              0                     -1             0
##  3                      -1              1                     -1             0
##  4                      -1              0                     -1             0
##  5                      -1              0                     -1             0
##  6                      -1              0                     -1             0
##  7                      -1              0                     -1             0
##  8                      -1              0                     -1             0
##  9                      -1              0                     -1             0
## 10                      -1              0                     -1             0
## # ... with 23 more rows, and 2 more variables: ProductRelated_Duration <dbl>,
## #   ProductRelated <dbl>
…
